…
\#Combining the two datasets to stack on top of eachother

``` r
trash_data=bind_rows(mr_trash, prof_trash)
trash_data
```

    ## # A tibble: 641 × 15
    ##   dumpster month  year date                weight_tons volume_…¹ plast…² polys…³
    ##   <chr>    <chr> <dbl> <dttm>                    <dbl>     <dbl>   <dbl>   <dbl>
    ## 1 1        May    2014 2014-05-16 00:00:00        4.31        18    1450    1820
    ## 2 2        May    2014 2014-05-16 00:00:00        2.74        13    1120    1030
    ## 3 3        May    2014 2014-05-16 00:00:00        3.45        15    2450    3100
    ## # … with 638 more rows, 7 more variables: cigarette_butts <dbl>,
    ## #   glass_bottles <dbl>, grocery_bags <dbl>, chip_bags <dbl>,
    ## #   sports_balls <int>, homes_powered <dbl>, id <chr>, and abbreviated variable
    ## #   names ¹​volume_cubic_yards, ²​plastic_bottles, ³​polystyrene
…
